<?xml version="1.0" standalone="no"?>
<!DOCTYPE svg PUBLIC "-//W3C//DTD SVG 1.1//EN" "http://www.w3.org/Graphics/SVG/1.1/DTD/svg11.dtd" >
<svg>
<metadata>
Created by FontForge 20110222 at Mon Aug 31 16:30:30 2015
 By www-data
</metadata>
<defs>
<font id="untitled-font-2" horiz-adv-x="512" >
  <font-face 
    font-family="untitled-font-2"
    font-weight="400"
    font-stretch="normal"
    units-per-em="512"
    panose-1="2 0 5 9 0 0 0 0 0 0"
    ascent="480"
    descent="-32"
    bbox="1 10 510 504"
    underline-thickness="0"
    underline-position="0"
    unicode-range="U+0061-006B"
  />
<missing-glyph 
 />
    <glyph glyph-name=".notdef" 
 />
    <glyph glyph-name=".notdef" 
 />
    <glyph glyph-name=".null" horiz-adv-x="0" 
 />
    <glyph glyph-name="nonmarkingreturn" 
 />
    <glyph glyph-name="a" unicode="a" 
d="M460 296q16 48 -11 84q-26 33 -70 31q-15 39 -49 62t-75 23q-53 0 -92.5 -40t-41.5 -97q-51 -2 -85.5 -38.5t-34.5 -87.5q0 -52 37 -89t89 -37q6 0 6 6t-6 6q-47 0 -80.5 33.5t-33.5 80.5t33.5 80.5t80.5 33.5q6 0 6 6q0 53 36.5 92t86.5 39q39 0 69.5 -22t44.5 -59
q1 -4 6 -4h8q36 0 56 -26q24 -32 7 -77q-2 -5 3 -8q22 -13 35 -35t13 -45q0 -36 -42 -62q-39 -26 -82 -26q-6 0 -6 -6t6 -6q45 0 90.5 29.5t45.5 70.5q0 24 -14 48.5t-36 39.5zM341 139l-9 8l-28 -28h-36l41 41l-8 8l-40 -40v35l28 28l-8 8l-20 -20v30h-12v-30l-20 20l-8 -8
l28 -28v-35l-40 40l-8 -8l41 -41h-36l-28 28l-9 -8l20 -20h-29v-11h29l-20 -20l9 -9l28 29h34l-39 -40l8 -8l40 40v-36l-28 -28l8 -8l20 20v-30h12v30l20 -20l8 8l-28 28v36l40 -40l8 8l-39 40h34l28 -29l9 9l-20 20h29v11h-29z" />
    <glyph glyph-name="b" unicode="b" 
d="M447 105h-382q-20 0 -33.5 13.5t-13.5 33.5v207q0 20 13.5 34t33.5 14h382q20 0 33.5 -14t13.5 -34v-207q0 -20 -13.5 -33.5t-33.5 -13.5zM65 391q-13 0 -22 -9t-9 -22v-207q0 -13 9 -22.5t22 -9.5h382q13 0 22 9t9 23v206q0 13 -9 22.5t-22 9.5h-382zM486 312h-460
q-8 0 -8 8t8 8h460q8 0 8 -8t-8 -8zM423 248h-79q-8 0 -8 8t8 8h79q8 0 8 -8t-8 -8zM248 248h-159q-8 0 -8 8t8 8h159q8 0 8 -8t-8 -8z" />
    <glyph glyph-name="d" unicode="d" 
d="M478 29h-444q-8 0 -8 7v399q0 7 8 7h77q7 0 7 -7q0 -8 -7 -8h-70v-383h429v383h-69q-7 0 -7 7q0 8 7 8h77q7 0 7 -8v-398q0 -7 -7 -7zM172 396h-62q-7 0 -7 8v76q0 8 7 8h62q7 0 7 -8v-76q0 -8 -7 -8zM118 412h46v61h-46v-61zM401 396h-61q-8 0 -8 8v76q0 8 8 8h61
q8 0 8 -8v-76q0 -8 -8 -8zM348 412h46v61h-46v-61zM340 427h-168q-8 0 -8 7q0 8 8 8h168q8 0 8 -8q0 -7 -8 -7zM478 335h-444q-8 0 -8 8q0 7 8 7h444q7 0 7 -7q0 -8 -7 -8z" />
    <glyph glyph-name="f" unicode="f" 
d="M352 196q-15 5 -32 14q21 18 32 38q12 -25 48 -33q58 -10 82 45q2 2 0 7q-3 4 -7 4q-20 0 -30 22.5t-20 69.5q-8 35 -14 54.5t-20 43.5t-34 33q-40 18 -102 -12q-63 30 -102 12q-20 -9 -34.5 -33.5t-20 -43t-13.5 -54.5q-7 -27 -9.5 -36.5t-9 -26.5t-14 -23t-17.5 -6
q-4 0 -7 -4q-3 -3 -1 -7q20 -46 67 -46q10 0 16 1q35 6 48 33q11 -20 32 -38q-5 -3 -15.5 -7.5t-15.5 -6.5q-37 -15 -55.5 -24t-42.5 -24.5t-33.5 -33.5t-9.5 -42l-1 -38h475v40q0 23 -9.5 41t-33.5 33.5t-42 24t-55 23.5zM107 230q-39 -8 -60 26q15 4 26 22t15 33t12 47
q9 36 13.5 52t17 38.5t29.5 29.5q31 16 92 -13q3 -1 7 0q59 29 91 13q17 -7 29.5 -28.5t18 -40.5t12.5 -51q7 -31 12 -47.5t15.5 -33.5t25.5 -21q-20 -34 -59 -26q-17 4 -29.5 15t-12.5 27v3q24 6 24 37q0 32 -24 38l-10 34q0 6 -7 6q-60 0 -78 29q-4 6 -7 9q-4 4 -11 0
l-6 -9q-17 -29 -78 -29q-7 0 -8 -6l-9 -35q-10 -2 -17 -12q-7 -12 -7 -25q0 -32 24 -37l1 -3q0 -16 -12.5 -27t-29.5 -15zM163 284q-1 6 -8 6q-15 0 -15 22t15 22q7 0 7 6l9 34q63 2 83 34q22 -32 84 -34l8 -34q2 -6 8 -6q14 0 14 -22t-14 -22q-6 0 -8 -6
q-3 -21 -15.5 -38.5t-28.5 -28.5t-27 -17t-21 -9q-10 3 -21 9t-27 17t-28 28.5t-15 38.5zM477 50h-444l1 22q0 16 7.5 30t17 23.5t30.5 21t34 17.5t42 18q32 12 40 16q22 -15 47 -23q1 -1 3 -1q1 0 2 1q25 8 48 23q7 -3 20 -8.5t20 -8.5q27 -11 41.5 -17.5t34.5 -17.5
t30 -20t17.5 -23t7.5 -29v-24h1zM203 332v2h9h6h9v-2q0 -8 8 -8t8 8q0 9 -5 13q-5 5 -20 5h-5q-15 0 -21 -5q-5 -5 -5 -13t8 -8t8 8zM275 324q8 0 8 8v2q2 2 9 0h6h9v-2q0 -8 8 -8t8 8q0 9 -5 13q-5 5 -20 5h-5q-15 0 -21 -5q-5 -5 -5 -13t8 -8z" />
    <glyph glyph-name="g" unicode="g" 
d="M260 167q-29 0 -67 29.5t-41 71.5q-23 8 -23 38q0 31 24 37l9 44q2 7 8 7q64 0 78 29q4 6 7 9q5 6 11 0l6 -9q17 -29 79 -29q6 0 8 -7l9 -44q11 -3 17.5 -13.5t6.5 -23.5q0 -30 -23 -38q-4 -42 -42 -71.5t-67 -29.5zM176 378l-9 -44q-2 -7 -8 -7q-15 0 -15 -22t15 -22
q8 0 8 -8q0 -37 34 -64.5t59 -27.5t58.5 27.5t33.5 64.5q0 8 8 8q15 0 15 22t-15 22q-6 0 -8 7l-9 44q-63 1 -84 34q-16 -33 -83 -34zM380 313h-1q-7 1 -7 9l11 75q3 31 -21 57q-31 34 -102 34t-102 -34q-11 -12 -16 -26.5t-5 -23.5v-8l11 -74q2 -7 -7 -9q-7 -2 -9 7l-11 74
q0 43 25 70q36 40 114 40t114 -40q13 -13 19 -31t5.5 -26.5t-0.5 -11.5l-10 -75q-2 -7 -8 -7zM499 26h-478v56q0 28 16 51.5t41 33.5l124 37q8 3 10 -5q4 -8 -5 -10l-124 -37q-20 -8 -33 -27.5t-13 -42.5v-40h446v40q0 23 -13 43t-34 27l-124 38q-7 2 -5 10q2 7 10 5
l124 -38q26 -10 42 -33.5t16 -51.5v-56zM240 307q-8 0 -8 8v2h-10h-5h-9v-2q0 -8 -8 -8t-8 8q0 9 4 13q6 5 21 5h5q15 0 21 -5q5 -5 5 -13t-8 -8zM320 307q-8 0 -8 8v2h-9h-6h-9v-2q0 -8 -8 -8t-8 8t5 13t21 5h4q16 0 21 -5t5 -13t-8 -8z" />
    <glyph glyph-name="h" unicode="h" 
d="M14 21q-16 86 57 125q19 10 54 26t45 21q14 6 22 9q-98 96 -37 230q-23 -2 -46 -31q-6 -8 -16.5 -24.5t-14.5 -22.5q-18 22 -19 52.5t15 51.5q16 22 43 13q16 -7 48 -25q63 50 103 49t95 -54l45 27q43 18 59 -25q18 -47 -11 -91q-28 43 -31 47q-7 9 -34 31q-4 3 -13 -2
q-1 -1 -2 -4.5t0 -5.5q52 -123 -44 -218q34 -13 58 -25q7 -3 21 -9.5t21 -9.5q92 -44 73 -135h-491zM490 36q13 64 -48 95q-35 18 -123 57q-6 2 -19 -2q-37 -11 -76 1q-16 5 -20 2q-90 -40 -140 -68q-43 -24 -35 -85h461zM282 382q-60 -54 -132 -36q-6 -39 11.5 -77.5
t49.5 -57.5q55 -33 110 4q28 19 44.5 57t10.5 69q-62 -9 -94 41zM375 358q-1 46 -34.5 82.5t-75.5 37.5q-42 2 -76 -32.5t-38 -83.5q6 0 17.5 -1.5t17.5 -2t18 0.5q53 8 78 54q17 -33 38.5 -48t54.5 -7zM79 390q34 38 56 62q-6 0 -16 1t-16.5 0.5t-11.5 -2.5
q-12 -5 -15 -25.5t3 -35.5zM453 391q7 14 3 34.5t-14 27.5q-14 9 -40 -6q8 -9 25 -27.5t26 -28.5zM240 306q-25 21 -44 -2q-2 1 -5 4q0 2 0.5 5t0.5 5.5t0.5 5t1.5 2.5q24 3 44 2q2 0 8 -18q-2 -2 -6 -4zM324 306q-24 19 -49 2q0 2 0.5 6.5t0.5 7.5l1 4q30 4 44 3q1 0 9 -19
q-1 0 -3 -2t-3 -2z" />
    <glyph glyph-name="c" unicode="c" 
d="M8 137v315h488v-315h-4h-220h-3q-1 -1 -1 -2v-15h3h34h70q3 0 4 -1q2 -2 5.5 -7t4.5 -8l1 -1h-276q4 5 10 15q2 3 5 3h104h4v16h-4h-220q-3 -1 -5 0zM22 438v-288h460v288h-460z" />
    <glyph glyph-name="i" unicode="i" 
d="M288 176q-6 0 -8 8q0 8 8 8q41 4 68.5 34t27.5 71q0 43 -31 74t-75 31t-74.5 -31t-30.5 -74q0 -50 39 -81q6 -6 1 -12q-6 -6 -12 -1q-44 36 -44 94q0 50 35.5 86t85.5 36q51 0 86.5 -36t35.5 -86q0 -47 -32 -81.5t-79 -39.5h-1zM154 134q-50 0 -85.5 35.5t-35.5 86.5
q0 47 31.5 82t78.5 39q9 0 9 -8q0 -7 -8 -9q-40 -3 -67.5 -33t-27.5 -71q0 -44 31 -75t74 -31t74 31t31 75q0 48 -38 80q-6 6 -1 12t12 1q44 -36 44 -93q0 -50 -36 -86t-86 -36zM358 369q-3 0 -5 2q-6 6 0 12l115 116q5 5 12 0q6 -6 0 -12l-116 -116q-4 -2 -6 -2zM474 403
q-8 0 -8 8v74h-74q-8 0 -8 8t8 8h82q8 0 8 -8v-82q0 -8 -8 -8zM147 10q-8 0 -8 8v124q0 8 8 8t8 -8v-124q0 -8 -8 -8zM188 60h-82q-8 0 -8 8t8 8h82q8 0 8 -8t-8 -8z" />
    <glyph glyph-name="j" unicode="j" 
d="M256 41q-8 0 -8 8v181q0 8 8 8t8 -8v-181q0 -8 -8 -8zM256 222q-31 0 -52.5 21.5t-21.5 52.5q0 30 21.5 52t52.5 22t52.5 -21.5t21.5 -52.5t-21.5 -52.5t-52.5 -21.5zM256 354q-24 0 -41 -17t-17 -41t17 -41t41 -17t41 17t17 41t-17 41t-41 17zM399 107q-4 0 -7 3
q-4 8 2 12q84 67 84 174q0 87 -58 150q-5 7 0 12q7 5 12 0q63 -69 63 -162q0 -116 -91 -187q-2 -2 -5 -2zM114 107q-4 0 -6 1q-90 73 -90 188q0 92 62 162q7 5 12 0q6 -6 0 -12q-58 -64 -58 -150q0 -108 85 -174q6 -6 1 -12q-3 -3 -6 -3zM164 172q-4 0 -5 1q-59 48 -59 123
q0 61 40 104q5 6 12 1q6 -5 0 -11q-35 -41 -35 -94q0 -67 53 -109q6 -6 1 -12q-3 -3 -7 -3zM349 172q-4 0 -7 3q-4 8 2 12q52 43 52 109q0 53 -36 94q-6 6 0 11q7 5 12 0q40 -45 40 -105q0 -75 -58 -122q-4 -2 -5 -2z" />
    <glyph glyph-name="k" unicode="k" 
d="M214 272h152q31 0 37 -21q2 -5 13 -5q34 -5 55 -28.5t20 -56.5t-23.5 -55t-56.5 -23q-35 0 -55 -27q-27 -34 -72 -33q-17 2 -77 1.5t-77 -0.5q-14 0 -30 9q-59 37 -69 123q-3 25 -5 80q0 21 7.5 29t28.5 8h152v-1zM216 258h-152q-26 0 -23 -24q1 -6 2 -34.5t3 -43.5
q9 -73 56 -106q14 -9 33 -11h74t74 -1q45 -2 64 31q18 30 61 28q40 -2 60 34q19 34 0 66t-58 34q-1 0 -5.5 -0.5t-6.5 0t-4.5 1.5t-4 3.5t-1.5 6.5q0 16 -22 16h-150zM170 470q-12 -30 -17 -37q-11 -20 1 -35q26 -36 0 -76q-2 -3 -4 -10t-4 -10q-3 -3 -10.5 -8t-9.5 -7
q-2 2 -6 6.5t-6 8t-2 6.5q0 15 11 33q13 20 0 37q-25 37 0 76q2 3 4 10t5 10q12 14 19 14q4 -1 19 -18zM147 480q-12 -28 -15 -33q-22 -33 1 -63q16 -25 -1 -49q-6 -8 -10 -25q0 -2 6 -11q0 1 3.5 3t4.5 4q8 20 13 29q16 28 1 48q-24 31 0 66q14 16 -3 31zM321 359
q-16 -40 -28 -66q-1 -3 -8 -5t-11 0q-13 7 -11 17q3 19 12 36q12 20 0 37q-25 38 0 75q2 3 4 10t4 10q4 5 21 16q1 -2 7.5 -9.5t6.5 -11.5q0 -16 -11 -32q-14 -19 0 -40q3 -5 5 -11l4.5 -13.5t4.5 -12.5zM282 296q2 4 7 15.5t8 16.5q20 32 1 61q-19 28 0 54q16 20 1 40
q-20 -48 -26 -67q-3 -12 7 -24q24 -33 -1 -65q-12 -19 3 -31zM246 470q-14 -33 -16 -36q-14 -18 -1 -37q25 -35 1 -75q-2 -3 -4 -11t-5 -11q-11 -13 -19 -12q-4 0 -9.5 6t-4.5 11q0 18 10 33q13 22 0 41q-25 35 0 72q2 3 4.5 11t5.5 11q13 15 19 14q4 0 19 -17zM198 299
q3 -1 9 -1q22 48 23 54q6 17 -6 32q-22 32 1 63q12 17 -2 31q-18 -36 -24 -54q-5 -16 4 -29q26 -37 0 -71q-2 -2 -3 -6t-1 -10t-1 -9zM378 113q2 15 5 46t5 47q2 8 13 10q22 4 40 -10t21 -36q3 -21 -11.5 -38t-36.5 -19h-36zM395 129q30 -5 43 12q15 20 4 40q-12 22 -38 19
q-1 -12 -4 -35.5t-5 -35.5z" />
    <glyph glyph-name="e" unicode="e" 
d="M491 31h-461q-8 0 -8 8t8 8h461q8 0 8 -8t-8 -8zM348 31h-175q-8 0 -8 8v365q0 8 8 8h175q8 0 8 -8v-365q0 -8 -8 -8zM181 47h159v349h-159v-349zM475 31h-79q-8 0 -8 8v191q0 8 8 8h79q8 0 8 -8v-191q0 -8 -8 -8zM404 47h63v175h-63v-175zM126 31h-80q-8 0 -8 8v191
q0 8 8 8h80q8 0 8 -8v-191q0 -8 -8 -8zM54 47h64v175h-64v-175zM110 222q-8 0 -8 8v31q0 8 8 8t8 -8v-31q0 -8 -8 -8zM411 222q-8 0 -8 8v31q0 8 8 8t8 -8v-31q0 -8 -8 -8zM300 396h-79q-8 0 -8 8v48q0 8 8 8h79q8 0 8 -8v-48q0 -8 -8 -8zM229 412h63v32h-63v-32zM316 349
h-111q-8 0 -8 8t8 8h111q8 0 8 -8t-8 -8zM316 301h-111q-8 0 -8 8t8 8h111q8 0 8 -8t-8 -8zM316 254h-111q-8 0 -8 8t8 8h111q8 0 8 -8t-8 -8zM316 206h-111q-8 0 -8 8t8 8h111q8 0 8 -8t-8 -8zM316 158h-111q-8 0 -8 8t8 8h111q8 0 8 -8t-8 -8zM316 111h-111q-8 0 -8 8t8 8
h111q8 0 8 -8t-8 -8z" />
  </font>
</defs></svg>
