<?xml version="1.0" standalone="no"?>
<!DOCTYPE svg PUBLIC "-//W3C//DTD SVG 1.1//EN" "http://www.w3.org/Graphics/SVG/1.1/DTD/svg11.dtd" >
<svg>
<metadata>
Created by FontForge 20110222 at Tue Dec 15 12:01:06 2015
 By www-data
</metadata>
<defs>
<font id="untitled-font-2" horiz-adv-x="512" >
  <font-face 
    font-family="untitled-font-2"
    font-weight="400"
    font-stretch="normal"
    units-per-em="512"
    panose-1="2 0 5 9 0 0 0 0 0 0"
    ascent="480"
    descent="-32"
    bbox="10 11 500 501"
    underline-thickness="0"
    underline-position="0"
    unicode-range="U+0061-0065"
  />
<missing-glyph 
 />
    <glyph glyph-name=".notdef" 
 />
    <glyph glyph-name=".notdef" 
 />
    <glyph glyph-name=".null" horiz-adv-x="0" 
 />
    <glyph glyph-name="nonmarkingreturn" 
 />
    <glyph glyph-name="salon-01-01" unicode="a" 
d="M180 31h-8q-11 1 -26 16q-18 22 -22 53q-5 34 2 73l2 11q1 6 3 17t3.5 20t2.5 17q1 3 1 8t1 7v2q-51 3 -92 19q-37 17 -37 55v69q0 39 37 55q43 13 80 17q65 6 124 -10q19 -6 42 -16l7 -3q30 -12 70 -20q8 -2 14 -4q12 -3 12 -17v-83q0 -14 -14 -17q-4 -1 -11.5 -2.5
t-10.5 -2.5t-22 -5t-30 -7q-13 -3 -25 -9q-7 -2 -19 -6q-20 -6 -31 -8l-3 -1q-2 0 -2 -1q-6 -11 -7 -13q14 -11 12 -28q0 -19 -17 -30q2 -9 7 -26.5t8 -26.5q8 -20 9 -41q1 -25 -13.5 -41.5t-39.5 -20.5h-7zM163 457q-12 0 -34 -2q-38 -4 -75 -18q-26 -11 -26 -40v-69
q0 -29 27 -40q44 -16 89 -19q7 0 11 -4q3 -3 3 -10v-4q0 -4 -2 -18q-7 -39 -10 -53l-2 -11q-7 -36 -2 -67q4 -26 20 -46q8 -10 14 -11h12q19 3 29.5 15.5t9.5 31.5q0 9 -7 37q-10 38 -16 56q-4 11 7 16q10 4 10 17q0 11 -8 16q-9 7 -4 17q2 3 4.5 8l3.5 7q4 8 12 8l3 1
q16 5 30 9l18 6q18 6 27 8q18 4 52 12q3 1 10.5 2.5t11.5 2.5q2 0 2 1v2v83v1h-1q-8 2 -14 4q-56 14 -72 21l-9 3q-22 10 -40 15q-42 12 -84 12zM148 308q-26 0 -44 17.5t-18 42.5q0 26 17.5 44t42.5 18h1q26 0 44 -17.5t18 -42.5t-18 -43t-43 -19zM146 423l-1 -8
q-18 0 -31.5 -14t-13.5 -33t13.5 -31.5t32.5 -12.5t32 13.5t13 32.5t-13.5 32.5t-32.5 13.5v7h1zM484 285q-4 0 -7 1l-49 16q-12 4 -12 17v80q0 13 12 18q8 2 25 7.5t25 8.5q8 2 14.5 -2.5t6.5 -12.5v-117q0 -16 -15 -16zM431 317q1 0 2 -1l49 -16h1v1v117v1h-1
q-16 -5 -50 -17l-1 -1v-2v-81v-1z" />
    <glyph glyph-name="salon-02" unicode="b" 
d="M253 60l-40 5q-16 2 -56 18q-36 16 -68 44q-51 47 -65 113q-11 45 -2 93q4 20 6 31q0 2 1 7t2 7l1 8l14 -2q2 0 6.5 -0.5t6.5 -1.5q53 -11 102 -42q64 -44 90 -122q10 -36 12 -74q0 -17 -1 -25q0 -7 -1 -10v-4l-2 -13l-15 7q-8 4 -13 6q-44 25 -77 67q-1 1 -3 4
q28 -50 83 -99zM44 368q0 -1 -0.5 -3t-0.5 -4q-4 -20 -6 -29q-7 -45 2 -87q14 -61 61 -105q29 -25 64 -42q26 -12 41 -15q-77 75 -103 167l-1 5l12 10l7 -8l1 -2q23 -42 46 -71q34 -42 74 -62l6 -3v2q0 4 0.5 12t0.5 12q0 33 -11 69q-23 72 -84 114q-40 27 -96 40h-3.5h-3
h-3.5h-3zM289 112l19 15q26 19 41 34q-27 -17 -56 -29l-14 -5l5 21q1 5 3 13q9 44 38 77q28 33 77 43q33 4 79 -3q1 0 2 -1t2 -1h2l8 -3v-6q-14 -68 -53 -104q-45 -47 -128 -48zM465 261l-43 -51q-40 -46 -83 -81q56 6 91 41t47 89q-8 2 -12 2zM430 264q-8 0 -26 -2
q-42 -6 -67 -37q-25 -30 -34 -69q0 -2 -1 -3q36 16 104 65l58 43q-18 3 -34 3z" />
    <glyph glyph-name="salon-03" unicode="c" 
d="M271 11h-57v1l-16 1q-46 2 -72 4h-6q-8 0 -22 2q-23 4 -39 20.5t-17 40.5q-2 35 18 58q14 17 40 23q22 5 59 11q63 10 100 21q46 11 89 10q50 -1 83 -24q31 -20 39 -52q9 -40 -20 -75q-24 -26 -67 -35q-37 -6 -79 -6h-33zM232 31h39h32q40 0 76 6q37 6 55 29q24 26 17 57
q-8 25 -31 41q-29 19 -73 20q-39 2 -83 -9q-41 -11 -102 -20q-11 -2 -32 -6.5t-26 -5.5q-19 -4 -29 -16q-16 -20 -15 -45q1 -17 12 -29t27 -14q6 -1 21 -1h7q46 -2 72 -4zM204 205h-24q-41 2 -67 13q-33 13 -42 41q-13 40 17 76q27 30 73 33q35 2 107 -15q54 -12 80 -20
q17 -5 37 -16q31 -17 30 -57q-2 -27 -25 -37q-17 -8 -47 -12q-35 -4 -75 -4h-11h-8v-2h-9h-19h-17zM172 348h-10q-35 -1 -60 -26q-22 -26 -13 -58q6 -18 31 -28q21 -10 60 -12h41h8v1h28h11q40 0 73 4q29 4 42 12q14 8 14 20q1 28 -19 40q-12 7 -33 14q-29 9 -79 20
q-61 13 -94 13zM184 368h-1q-1 0 -3.5 0.5t-3.5 0.5q-17 3 -21 4q-40 11 -32 53t50 48q19 4 47 11q3 1 17 5t21 5l3 1q28 5 35 5h3q22 -1 40 -13.5t26 -32.5q7 -20 1 -40q-8 -20 -27 -28q-13 -6 -41 -8q-20 -2 -32 -3q-28 -2 -43 -4l-24 -3zM296 481q-11 0 -31 -4l-3 -1
q-24 -6 -37 -9q-35 -9 -49 -11q-29 -5 -35 -33q-5 -25 19 -32q9 -3 18 -3q1 0 3.5 -0.5t3.5 -0.5l12 1q9 1 25 3q28 2 44 4q10 1 32 3q24 2 35 8q12 4 15 15q5 14 -1 29q-13 31 -49 31h-2z" />
    <glyph glyph-name="salon-04" unicode="d" 
d="M162 143h-68v226h68v-226zM111 160h34v192h-34v-192zM418 143h-68v226h68v-226zM367 160h34v192h-34v-192zM358 236h-204v40h204v-40zM170 252h172v8h-172v-8zM99 181h-49v150h49v-150zM68 199h15v114h-15v-114zM461 181h-49v150h49v-150zM429 199h15v114h-15v-114z
M500 236h-45v40h45v-40zM470 252h12v8h-12v-8zM57 236h-45v40h45v-40zM29 252h12v7h-12v-7z" />
    <glyph glyph-name="salon-05" unicode="e" 
d="M245 413q0 -2 2 -12zM336 37h-308l37 18q72 38 95 83q22 79 -16 114q-4 -2 -7 -2h-4q-22 0 -24 24v4v3q-8 5 -5 13q-2 2 -4 7t2 10q-3 3 -6 4l-4 2l-1 6q-1 5 4 10q18 18 19 40q2 37 28 63v1l4 3q2 2 9.5 7.5t25.5 13.5t35 9h4q34 0 93.5 -33t92.5 -91q67 -119 -33 -288
l-1 -2l-2 -1q-13 -8 -32 -18h-2zM104 56h227q5 3 25 16q95 155 32 266q-29 52 -83.5 83t-84.5 31h-2q-27 -2 -55 -23v-1l-4 -3q-25 -21 -27 -53q-1 -27 -18 -46q6 -6 6 -12q1 -3 -1 -9q4 -6 2 -12q4 -5 4 -15v-3q0 -6 5 -6h2q1 0 2 1q9 5 18 -1q23 -20 28.5 -54.5t1 -55
t-7.5 -27.5l-1 -1q-14 -39 -69 -75zM215 298q-4 -4 0 -6t2 -8q-2 -4 1 -5q4 -3 4 -14q1 -16 19 -15q1 0 6.5 2t5.5 0q22 -19 27 -51.5t-1 -55.5l-6 -23q-1 -2 -3 -5.5t-4.5 -7t-5 -7.5t-5 -7t-4.5 -5.5t-3 -3.5l-1 -1q-29 -29 -65 -47h222q50 84 64 158t-1.5 121t-43.5 81
t-55.5 48t-43.5 12q-23 -2 -54 -20v-14q0 -20 9 -39q2 -5 13 -25l9 -12q4 -4 5 -6l6 -6q5 -6 16 -17t20 -21.5t17 -21.5q24 -37 26 -78v-19q0 -1 -0.5 -4t-0.5 -5t-2 -8q-6 -22 -11 -30q-12 -22 -29 -35q-13 -9 -15 -7q-1 1 9 13q15 22 19 35q4 7 8 27q0 1 0.5 3.5t0.5 4.5
v7q0 10 -1 17q-3 35 -25 66q-8 13 -26.5 33.5t-22.5 25.5q-1 1 -3 3.5t-3 3.5q-3 3 -5 7q-1 2 -5 7t-5 7q-9 15 -12 29q-8 24 -2 46l3 9l-7 -5v-1q-28 -25 -31 -61q-1 -15 -7 -27.5t-11 -17.5l-5 -6q20 -10 13 -18z" />
  </font>
</defs></svg>
