<?xml version="1.0" standalone="no"?>
<!DOCTYPE svg PUBLIC "-//W3C//DTD SVG 1.1//EN" "http://www.w3.org/Graphics/SVG/1.1/DTD/svg11.dtd">
<svg xmlns="http://www.w3.org/2000/svg">
<metadata>Generated by Fontastic.me</metadata>
<defs>
<font id="untitled-font-2" horiz-adv-x="512">
<font-face font-family="untitled-font-2" units-per-em="512" ascent="480" descent="-32"/>
<missing-glyph horiz-adv-x="512" />

<glyph glyph-name="price-01" unicode="&#97;" d="M350 239l-85-85 0 205c0 7-4 11-10 11-6 0-10-4-10-11l0-205-85 85c-4 4-10 4-15 0-4-5-4-11 0-15l103-102c1-1 2-2 3-2 1-1 3-1 4-1 1 0 3 0 4 1 1 1 2 1 3 2l103 102c4 4 4 10 0 15-5 4-11 4-15 0z m-95 259c-133 0-241-109-241-241 0-132 108-241 241-241 132 0 241 108 241 241 0 132-109 241-241 241z m0-461c-122 0-220 98-220 220 0 121 98 220 220 220 121 0 220-98 220-220 0-122-99-220-220-220z"/>
<glyph glyph-name="price-02" unicode="&#98;" d="M497 339c0 1 1 2 1 4 0 1 0 2-1 3 0 0 0 1-1 1 0 0 0 1-1 1l-104 145c-1 1-1 1-2 2-1 1-2 1-3 2-1 0-2 0-3 0l-256 0c-1 0-2 0-3 0-1 0-2-1-3-2-1-1-1-1-2-2l-105-145c0 0 0-1-1-1 0 0 0-1-1-1 0-1-1-2-1-3 0-1 0-2 1-4 0 0 0-1 1-1 0 0 0-1 1-1l233-321c1-1 1-1 2-2 0 0 0 0 1 0 1 0 1-1 2-1 0 0 1 0 1 0 1 0 2 0 3 0 1 0 2 0 3 0 0 0 1 0 1 0 1 0 1 1 2 1 0 0 0 0 1 0 1 1 1 1 2 2l233 321c0 0 0 1 1 1-2 0-2 0-2 1z m-374 124l31-111-111 0z m207-131l-75-272-75 272z m-145 20l70 115 70-115z m88 124l97 0-30-108z m-103-108l-30 108 97 0z m-11-36l71-259-187 259z m192 0l117 0-188-259z m5 20l31 111 80-111z"/>
<glyph glyph-name="price-03" unicode="&#99;" d="M502 343c0 89-73 162-162 162-88 0-161-72-162-160-88-1-160-73-160-162 0-89 73-161 162-161 88 0 161 71 162 159 88 1 160 73 160 162z m-322-301c-78 0-141 63-141 141 0 78 62 141 140 142 8-75 68-135 143-143 0-77-64-140-142-140z m160 160c-78 0-141 63-141 141 0 78 63 141 141 141 78 0 141-63 141-141 0-78-63-141-141-141z m0 194c12 0 21-9 21-21 0-6 5-10 11-10 6 0 10 4 10 10 0 19-13 36-32 41l0 7c0 6-4 10-10 10-6 0-10-4-10-10l0-7c-19-4-32-22-32-41 0-24 18-42 42-42 12 0 21-9 21-22 0-12-9-21-21-21-12 0-22 9-22 21 0 6-4 11-10 11-6 0-10-5-10-11 0-19 13-36 32-41l0-7c0-6 4-10 10-10 6 0 10 4 10 10l0 7c19 4 32 22 32 41 0 24-18 42-42 42-12 0-22 9-22 22 0 12 10 21 22 21z m-160-159c13 0 22-10 22-22 0-6 4-10 10-10 6 0 10 4 10 10 0 19-13 36-32 41l0 7c0 6-4 10-10 10-6 0-10-4-10-10l0-7c-18-4-32-22-32-41 0-24 19-42 42-42 13 0 22-9 22-21 0-13-9-22-22-22-12 0-21 9-21 22 0 6-4 10-11 10-6 0-10-4-10-10 0-20 14-36 32-41l0-8c0-6 4-10 10-10 6 0 10 4 10 10l0 8c19 4 32 21 32 41 0 23-18 42-42 42-12 0-21 9-21 21 0 12 10 22 21 22z"/>
</font></defs></svg>
