"Name","Phone","Email","Interested_in"
"raul oneil","(336) 317-7454","Ra.ONE4812@yahoo.com","Primefit 17-piece Air Compressor Accessory Kit"
"malaki robles","(414) 266-3617","Mal.ROB8942@hushmail.com","California Air Tools 4.6 Gallon Ultra Quiet And Oil-free 2.0 Hp Aluminum Twin Tank Air Compressor"
"raymond garrett","(720) 605-3741","Ray.GARRETT4716@hushmail.com","Black & Decker 6v High Performance Screwdriver, Pd600"
"jocelynn guy","(303) 933-9410","Joce.G4423@yahoo.com","Hitachi 83-piece Drill And Driver Bit Set"
"camilo hoover","(718) 129-6149","Cam.HOOV3233@hushmail.com","Stanley Fatmax 12v Cordless Drill, Fmc010lb"
"jaime lester","(708) 314-7950","Ja.LESTE6831@gmail.com","Gmc Power Equipment 1.6 Gallon Gmc Syclone 1650a Ultra Quiet And Oil-free Air Compressor"
"kai huff","(573) 628-5674","K.HU1445@yahoo.com","Bosch Power Tools 29 Piece High Speed Steel Drill Set With Metal Case 96029"
"franklin morin","(606) 208-6045","Frankli.MO1572@yahoo.com","Vim Products 12mm Triple Square Bit"
"gilbert elliott","(234) 145-1510","Gilbert.ELLI1097@gmail.com","Numax 2"" Brad Nailer"
"amya ballard","(747) 661-8011","Amy.BALLARD3841@live.com","Gmc Power Equipment 1.6 Gallon Gmc Syclone 1675a Ultra Quiet And Oil-free Air Compressor"
"zion odom","(765) 874-0015","Zio.ODOM2520@hushmail.com","Hitachi 2 1/4 Horsepower 11 Amp Plunge And Fixed Base Variable Speed Router Kit"
"kasen blankenship","(580) 407-3134","Kase.BLANKEN4054@hushmail.com","Fpc Corporation Surebonder Dual Melt High/low Temperature Glue Gun Fprdt270"
"payton soto","(206) 614-1055","Payt.SOTO6212@hushmail.com","Hitachi 4 1/2"" 6 Amp Angle Grinder With 5 Abrasive Wheels"
"kamryn hull","(814) 555-7648","Kamryn.HUL8225@mail2web.com","Hitachi 18v 1/2"" Cordless Drill/driver Kit W/35-pc Hi-torq Impact Rated Torsion Bit Set"
"denise gardner","(479) 259-2793","Den.GARD6587@yahoo.com","Wen 7 Sander And Polisher"
"caitlin bender","(806) 799-2253","Caitl.BEND2153@mail2web.com","Stanley Fatmax 20-volt Lithium Cordless Hammer Drill, Fmc620la"
"van hardin","(812) 620-7490","Va.HARD2582@yahoo.com","Black & Decker Lithium Saw, Lps7000"
"ray mcdonald","(539) 887-4588","R.MCDONALD1659@gmail.com","Edsal Heavy-duty Steel Workbench, Mrwb-6"
"christine beasley","(405) 204-1351","Christi.BEASLE8817@live.com","Dremel Mm20-03 Multi-max Tool Kit"
"julian stephens","(434) 837-5542","Juli.STEP2506@mail2web.com","Rockwell Shopseries 12 Amp 7 1/4"" Circular Saw"
"leonidas wolf","(805) 769-1233","Leoni.WOLF5768@yahoo.com","Vermont American 7 To 7-1/4 Masonry Circular Saw Blades 28052"
"kody vasquez","(239) 899-6482","Ko.VAS6545@mail2web.com","Skil 4570-01 18-volt Jigsaw"
"isabella potter","(408) 853-8613","Isabell.POTTE8944@live.com","Irwin 7-piece Drive Set, 1885553"
"michelle barton","(352) 285-5155","Mich.BARTO5243@gmail.com","Audiopipe Thsy3075c Pipeman Train Horn Air Compressor"
"fabian nash","(607) 362-6010","Fabi.NA3285@yahoo.com","Porter Cable-piece15cslk 7-1/4"" 15-amp Circular Saw"
"alan gibbs","(936) 273-9425","Ala.GIBB5171@gmail.com","Lumberjack Tools Hsk2 Home Series 2-piece Starter Kit"
"frankie crane","(605) 625-5146","Frankie.CR4577@gmail.com","Cps Products Ccvpc4su 4 Cfm Single Stage Vacuum Pump"
"annie keith","(351) 595-1441","Annie.KEIT1298@live.com","Century Drill And Tool Reciprocating Saw Blade (set Of 4)"
"kenya chavez","(763) 674-6113","Ken.CHAVE8647@gmail.com","Ad Tech Multi-temp Full Size 4"" Glue Sticks, 50 Ct"
"giancarlo fowler","(301) 108-7682","Giancarlo.FOWL9749@mail2web.com","Astro Pneumatic 1/4 Micro Mini Air Ratchet"
"breanna cannon","(806) 525-8180","Brean.CANNO3211@hushmail.com","Porter Cable-piece15cslk 7-1/4"" 15-amp Circular Saw"
"ari swanson","(425) 969-9588","Ari.SWANS2757@yahoo.com","Bostitch 6 Amp Orbital Jig Saw And Bonus Jig Saw Blade Bundle"
"conner ford","(856) 875-4595","Conner.FO7515@hushmail.com","Black & Decker 9.6v-18v Multi Voltage Fast Charger, Fsmvc"
"riley brady","(779) 677-6403","Ri.BRADY9187@live.com","Powryte 3/8"" Air Drill, 100114a"
"samir lynch","(281) 345-7954","Sami.LY2010@yahoo.com","Master Magnetics 7269 36-inch Retrieval Magnet"
"regan navarro","(747) 207-9596","Rega.NAVARRO1610@mail2web.com","Bostitch 100 Ft Air Compressor Hose Prozhoze, 3/8"" X 100, Pro-38100"
"elliot love","(862) 787-2831","Elliot.LO1579@yahoo.com","Diteq Gasket Core Drills Accessories"
"emmitt pierce","(609) 201-7315","Emmitt.PIERCE2297@gmail.com","Wagan Cordless Spotlight Compressor"
"avery mcintosh","(832) 984-3282","Ave.MCINTO8155@live.com","Ad Tech Hi-temp Full Size Glue Gun"
"camron gould","(714) 769-8822","Cam.GOULD6275@hushmail.com","Ad-tech: High-temp Glue Sticks, 5/16"" X 4"", 100pk"
"jadyn mays","(682) 293-1379","Jady.MAYS3473@yahoo.com","Mini Glue Sticks 4"" 25/pkg-opal/glitter"
"abigail whitley","(417) 803-6327","Abi.WHITL4362@mail2web.com","Black & Decker 6.5a .5"" Vsr 2-speed Hammer Drill, Dr670"
"liliana spence","(724) 962-2309","Lilian.SPE7201@gmail.com","Edsal Heavy-duty Workbench, Ub400"
"meredith mendez","(747) 236-6487","Mere.MENDE6352@gmail.com","Dewalt Power Tools 18 Volt Compact Lithium Ion Drill Driver & Impact Driver Comb"
"samuel vasquez","(712) 117-4627","Sam.VAS8084@hushmail.com","Eclipse Pz3x1-15/16 Bit Pozidrive Size 3 1-15/16in Long 1/4in Hex"
"cassidy bell","(719) 128-0113","Cas.BELL8571@mail2web.com","Titan Master Drill & Bit 204pc Set W/4fold Cs"
"hezekiah stevens","(616) 488-3145","Hezek.STEVEN5633@yahoo.com","Bosch Pl1682 3-1/4"" 6-amp Planer"
"knox hahn","(908) 542-2456","Knox.HA3639@hushmail.com","Powryte 3/8"" Air Drill, 100114a"
"joel leon","(413) 819-8358","Joel.LE5379@yahoo.com","Weller Sp80l Medium Duty Soldering Iron"
"aubrie zamora","(340) 501-4335","Aub.ZAMORA3762@gmail.com","Skil 2260-01 18-volt Cordless 3/8-inch Drill/driver Kit"
