"Name","Phone","Email","Interested_in"
"muhammad knight","(714) 231-2758","Muhamma.KNIG4564@live.com","Skil 5480-01 7-1/4-inch Skilsaw Circular Saw"
"kamille campbell","(539) 838-1316","Kami.CAMPBE3625@hushmail.com","Hitachi 18v Lithium-ion Combo Kit With 2 Canvas Bags"
"abigail bell","(262) 200-0401","Abiga.BEL6177@yahoo.com","Stanley Fatmax 7a Hammer Drill, Fme140"
"lilah gilmore","(202) 107-3320","Li.GILMORE5237@gmail.com","All Purpose Stik Glue Sticks, 7/16"" X 4"", 50/pkg"
"hazel patterson","(507) 451-3404","Haz.PATT6973@gmail.com","Alpha Fry Am13460 Rosin Core Solder And Dispenser"
"haiden burton","(607) 169-3619","Haid.BUR7618@hushmail.com","Campbell Hausfeld Dual Action Sander"
"adeline maynard","(330) 254-6281","Ade.MAY1683@yahoo.com","Black And Decker 3.6 Volt Lithium Ion Screwdriver, Li3100"
"liv aguirre","(205) 578-3728","L.AGUIRR8008@live.com","Weller Battery Powered Soldering Iron Kit"
"jadon jenkins","(931) 114-4228","Jad.JENK4869@live.com","Campbell Hausfeld 17-piece Pneumatic Accessory Kit"
"tegan workman","(612) 173-7068","Teg.WORKMA6362@live.com","Bostitch 6 Gallon, 135 Psi, Air Compressor, Btfp02006"
"zander cabrera","(949) 151-5678","Zan.CABR6837@yahoo.com","Hitachi 4 1/2"" 5 Amp Angle Grinder"
"aidan dotson","(865) 415-1938","Aid.DOTSO8747@live.com","Ad Tech Multi-temp Mini Size 4"" Glue Sticks, 100 Ct"
"edward house","(479) 115-5057","Edward.HO1609@mail2web.com","Campbell Hausfeld Exteme Duty 3/8 Air Ratchet"
"willie terrell","(724) 501-8740","Willie.TERR9210@live.com","Titan 16048 48 Piece Quick-disconnect Drill And Power Bit Set With Portable Bit Cases"
"annalise green","(310) 927-6214","Annal.GREEN2277@yahoo.com","Skil 3410-02 10"" Table Saw"
"vincenzo conway","(843) 212-9998","Vincen.CONWA5316@yahoo.com","Buffalo Tools Ps07499 24-piece Router Bit Set"
"jaron hernandez","(732) 487-5087","Jar.HERNAN6793@yahoo.com","Weller Sp40l Lightweight Soldering Iron"
"aileen garcia","(615) 802-6069","Ailee.GAR6593@hushmail.com","Hopkins-f3 Brands 90158 Workbench Kit"
"conor camacho","(281) 905-4525","Conor.CAMAC9186@mail2web.com","Dremel Universal Carbide Flush Cut Blade, Mm485"
"kourtney adams","(856) 683-3273","Kourtney.ADAMS2881@live.com","Black & Decker 18v Cordless Drill"
"lily branch","(209) 738-3465","Lil.BRANCH8306@hushmail.com","Powryte 3/8"" Air Impact Wrench, 100101a"
"camila simpson","(337) 372-7261","Cami.SIM6781@mail2web.com","Hitachi 14-piece Titanium Drill Bit Set"
"brody tucker","(630) 173-5136","Br.TUCKER7838@yahoo.com","Multi-temp Hybrid Cordless Glue Gun"
"jaime monroe","(704) 668-6649","Jaim.MONR2894@mail2web.com","Stalwart 0.5"" Chuck Hammer Drill"
"adele ramsey","(402) 297-6795","Adel.RAMSE5291@yahoo.com","Hitachi 2 1/2"" Coil Siding Nailer"
"sydney cline","(952) 660-4904","Sydne.CL3646@mail2web.com","Weller Analog Soldering Station, Wes51"
"gabriel woodward","(832) 283-8303","Gabriel.WOODW8071@hushmail.com","Campbell Hausfeld 50 Retractable Hose Reel"
"andres fitzpatrick","(207) 386-1076","Andr.FITZPATRI5886@yahoo.com","Fry Technologies Cookson Elect Am33955 95/5 Lead-free Solid Wire Solder"
"ayden kim","(724) 262-1141","Ayd.KIM2672@hushmail.com","Lincoln Industrial Fully Automatic Pneumatic Grease Gun"
"cristopher keith","(539) 171-5845","Cristophe.KEIT8954@mail2web.com","Campbell Hausfeld 2-1/2 Finish Nailer (16 Gauge)"
"jaime chase","(201) 388-4021","Jai.CHAS3484@yahoo.com","Dremel Cleaning/polishing Mini Accessory Kit, 684-02"
"journee lawrence","(609) 735-8768","Journee.LAWRE7525@gmail.com","Pro-lift I-4506 6in Buffer / Polisher"
"maya morton","(567) 587-2350","Ma.MORTON1929@yahoo.com","Astro Pneumatic Grease Gun Mini 3oz Cap W/ Needle Nozzle"
"aleah mason","(214) 302-1452","Alea.MAS8005@live.com","Lumberjack Tools Tac1500 1-1/2-inch Commercial Series Tenon Cutter"
"hector bowen","(607) 859-9783","Hector.BOWE1695@hushmail.com","Irwin 5-3/8 24t Marathon Cordless Circular Saw Blade"
"jamie gamble","(662) 387-7381","Jami.GAM5936@mail2web.com","Surebonder Wide Crown Pneumatic Stapler"
"allen jordan","(947) 419-9686","Alle.JORDA4237@mail2web.com","Stanley Tr45 Light Duty Staple Gun"
"zachariah robertson","(252) 925-5681","Zachari.ROBERTS3991@gmail.com","Hoover Ch82010 Ground Command Super Heavy-duty Air Mover, 12 A, 30 Lbs, Black"
"franco church","(518) 214-5975","Franco.CHURCH7280@hushmail.com","Powermate 30 Gallon Cast Iron Oil Lubricated Belt Drive Industrial Air Compressor"
"yosef leon","(651) 238-9813","Yose.LEO5318@hushmail.com","Fry Technologies Cookson Elect Am32406 General Purpose Acid Core Solder"
"landen cleveland","(864) 157-0594","Landen.CLEVELA6057@mail2web.com","Alton 2 Gallon Pancake Air Compressor"
"zara gould","(707) 676-1074","Za.GO9494@gmail.com","Bosch Power Tools 29 Piece High Speed Steel Drill Set With Metal Case 96029"
"kaitlyn rodgers","(309) 150-4544","Kait.RODGE3588@live.com","Vermont American 7 To 7-1/4 Masonry Circular Saw Blades 28052"
"malik randolph","(763) 351-6602","Ma.RANDOL5879@gmail.com","Century Drill And Tool Reciprocating Saw Blade (set Of 4)"
"marcel terry","(585) 246-6894","Marcel.TER5057@live.com","Black & Decker Heat Gun"
"ross bass","(712) 318-4650","Ros.BA2696@mail2web.com","Ad Tech Hi-temp Mini Size Glue Gun"
"laurel kelley","(865) 542-5397","Laurel.KELLEY6722@yahoo.com","Stanley Fatmax Value Bundle"
"randall jefferson","(575) 773-8473","Rand.JEFFE7085@hushmail.com","Wen Apex Pro 12v 3/8 Lithium Ion Cordless Drill/driver"
"raven acosta","(650) 339-8902","Ra.ACOST9848@live.com","Dsr Schumacher Psj-2212 Pro Series 2200 Amp Jump Starter"
"valeria peters","(708) 865-1228","Val.PETER5789@mail2web.com","California Air Tools 1.6 Gallon Ultra Quiet And Oil-free 1/2 Hp Aluminum Tank Air Compressor"
"gabriel meadows","(423) 817-8580","Gabrie.MEAD2886@mail2web.com","Hitachi 14-piece Titanium Drill Bit Set"
"lincoln montoya","(270) 609-9130","Lincoln.MONTOYA2909@live.com","Bostitch Air Tool Inline Lubricator, 1/4 Npt, Btfp72641"
"avery bond","(715) 925-7189","Av.BOND4592@hushmail.com","Striker Adjustable Garage Parking Sensor"
"blakely hawkins","(423) 823-4235","Blakely.HAWK8045@yahoo.com","Gmc Power Equipment 6.3 Gallon Gmc Syclone 6310 Ultra Quiet And Oil-free Air Compressor"
"soren coleman","(769) 724-3027","Soren.COLE3641@live.com","Ingersoll Rand Ring / Gasket Kit For Ss5 Electric Units"
"ximena hensley","(313) 154-3912","Xime.HENS1363@mail2web.com","Bostitch Prozhoze, 3/8"" X 50, Hopb3850"
"fernando good","(719) 760-4529","Ferna.GOO8307@yahoo.com","Stanley Tr45 Light Duty Staple Gun"
"mina grant","(505) 176-9001","Mina.GRAN7668@gmail.com","Buffalo Tools Stainless Steel Work Table"
"knox gamble","(731) 783-7571","Kno.GAM8063@live.com","Ad-tech: High-temp Glue Sticks, 5/16"" X 4"", 100pk"
"ryan gay","(762) 408-7611","Rya.GAY7200@yahoo.com","Black & Decker 1/4-sheet Sander With Filtered Dust Collection"
"macey cook","(432) 345-5428","Mac.COOK7195@yahoo.com","Dremel Workstation, 220-01"
"kaitlynn todd","(762) 995-9127","Kaitlynn.TOD8277@live.com","Weller Sp23l Featherweight Soldering Iron"
"jade morales","(989) 751-4710","Ja.MOR1476@yahoo.com","Campbell Hausfeld 1-1/4"" Brad Nails"
"raiden little","(929) 818-4966","Raide.LITTLE5338@gmail.com","Masterflow 12v High Volume Air Compressor / Inflator"
"king york","(407) 787-2464","Kin.YOR8183@mail2web.com","Gmc Power Equipment 1.6 Gallon Gmc Syclone 1675a Ultra Quiet And Oil-free Air Compressor"
"semaj rowland","(385) 603-2360","Sema.ROWLA2128@yahoo.com","Jewelers Chasing Hammer - 1 Inch Head - Metal Smithing"
"brayan beard","(337) 169-0100","Bra.BEA6267@live.com","Lincoln Industrial Grease Gun Cordless With Case, Two Batteries"
"haley peterson","(775) 241-6572","Hale.PETERS9802@gmail.com","Custom Accessories 59008 250-psi Compressor"
"paul tran","(949) 267-6700","Paul.TRA5419@hushmail.com","Freud 12 44t Diablo General Purpose Chop/slide Miter Saw Blade D1244x"
"ciara head","(704) 655-2991","Ciara.HEAD7689@yahoo.com","Microflex Mxbd-1000-pf Black Dragon X-small Latex Fully Textured Gloves"
"mckenna christensen","(219) 299-8658","Mckenn.CHRISTENS9143@hushmail.com","Powermate 30 Gallon Cast Iron Oil Lubricated Belt Drive Industrial Air Compressor"
"shelby ramirez","(907) 435-4466","She.RAMI1517@hushmail.com","Lumberjack Tools Tta2000 2in Industrail Series Tenon Cutter"
"kaeden rojas","(916) 561-8461","Kaed.ROJAS4003@hushmail.com","Bosch Power Tools 29 Piece High Speed Steel Drill Set With Metal Case 96029"
"skylar vargas","(507) 500-8262","Skylar.VAR7790@yahoo.com","Porter Cable-piece15cslk 7-1/4"" 15-amp Circular Saw"
"adrian reilly","(205) 307-8756","Adri.REILL7327@live.com","Black & Decker 9.6v - 24v Multi Battery Charger"
"jorge byrd","(815) 250-7120","Jorg.BYRD5792@live.com","Striker Adjustable Garage Parking Sensor"
"danna guerra","(605) 802-1498","Da.GUERRA6884@gmail.com","Stanley Heavy Duty Aluminum Stapler, Tr150hl"
"bailey glover","(203) 342-2063","Bail.GLOVER4320@yahoo.com","Irwin 13-piece Drive Kit, 1885552"
"yazmin roy","(909) 728-6061","Yazmin.RO7005@hushmail.com","Black And Decker 3/8"" 6-amp Variable Speed Drill With Keyless Chuck"
"blair fitzpatrick","(385) 757-4286","Blai.FITZPA9371@gmail.com","Western Enterprises 1/4 Npt X 3 Long Male Brass Regulator Nipple Cga 540"
"ivan sims","(217) 805-7140","Ivan.SIM5930@mail2web.com","Ingersoll Rand 1/2 Impact Wrench Tune-up Kit For 231ha And 231ha-2"
"kayden horton","(215) 963-7993","Kayde.HORTO5863@gmail.com","Numax 18 Gauge 2 In 1 Brad Nailer & Stapler"
"broderick johnston","(440) 248-3401","Broder.JOHN1129@hushmail.com","Wagan Heavy-duty Air Compressor"
"kayson ward","(606) 222-4088","Kays.WAR9084@mail2web.com","Eclipse 902-134 Solder Tip For 900-066n Solder Station"
"timothy woodward","(804) 914-9006","Timothy.WOODWARD4748@hushmail.com","Ingersoll Rand 244a 1/2-inch Drive Super Duty Impact Wrench"
"caydence ratliff","(941) 945-1782","Cayden.RAT7538@live.com","Titan 22958 Mini Air Compressor"
"vicente dean","(623) 330-2277","Vicent.DE5357@gmail.com","Edsal Heavy-duty Steel Workbench, Mrwb-6"
"carmen rocha","(336) 968-6098","Carmen.ROCHA1274@mail2web.com","Superior Tool 2"" Pvc Pipe Cutter"
"jeffrey hays","(858) 294-6728","Jef.HAY5266@hushmail.com","Bosch 6335-01 7 Amp 1/2"" Corded Drill"
"adan salinas","(661) 528-5623","Ada.SAL6378@yahoo.com","Jaco Jfc010 0.35 Oz Just For Copper Solderless Copper Bonding"
"esme ayers","(415) 575-8904","Esme.AYERS7665@gmail.com","Titan 22958 Mini Air Compressor"
"colby savage","(479) 102-2432","Colby.SAV5472@gmail.com","Dremel 7700-1/15 7.2v Multipro Cordless Kit"
"anderson walter","(331) 736-5491","Anderson.WALT1492@mail2web.com","Black And Decker 3/8"" 5-amp Variable Speed Drill With Keyless Chuck, Dr260b"
"jennifer gilliam","(614) 943-0351","Jennife.GIL6672@yahoo.com","Black & Decker 68-piece Project Kit With 20v Lithium Drill/driver, Li2000pk"
"kailyn hardy","(469) 859-6497","Kailyn.HARD9249@hushmail.com","Black & Decker Matrix Oscillating Head Attachment, Bdcmto"
"timothy macias","(803) 461-7433","Timo.MACIAS3806@gmail.com","Bosch Power Tools 29 Piece High Speed Steel Drill Set With Metal Case 96029"
"terrell floyd","(623) 115-5457","Terrell.FL5108@mail2web.com","Audiopipe Thsy3075c Pipeman Train Horn Air Compressor"
"cristopher england","(843) 455-0113","Cristoph.ENGL6951@gmail.com","Primefit 1-gallon, 125 Psi Home Workshop Air Compressor"
"paityn moses","(817) 289-7757","Paityn.MOSE5912@hushmail.com","Hitachi 18v Lithium-ion Cordless Impact Driver W/120-pc Drill/drive Set"
"chanel webster","(734) 466-7810","Chane.WEBST3615@gmail.com","Mini Glue Sticks 4"" 25/pkg-gold/silver"
"dixie fleming","(619) 427-9897","Dix.FLEMIN8969@yahoo.com","Cgw Abrasives Z-thru Flap Discs - 4 1/2 X 7/8 Z-80 T27 Z-thru Flap Disc"
"zaire gallegos","(712) 448-3212","Za.GALLEGOS6619@yahoo.com","Powerbuilt Soldering Gun Kit"
"nickolas byrd","(620) 889-8743","Nick.BYRD3099@gmail.com","Campbell Hausfeld Tl1103 5/8-inch Stroke Air Hammer"
"gisselle bryant","(856) 461-5237","Gissell.BRYANT4202@hushmail.com","Bosch 6335-01 7 Amp 1/2"" Corded Drill"
"jase solis","(567) 553-8874","Jas.SOLI5013@yahoo.com","Porter Cable 371k Compact Belt Sander"
"kolten rosa","(814) 712-2153","Kolte.ROS4098@live.com","Black & Decker Matrix Combo Kit, 20v Drill And Jig Saw, Bdcdmt120js"
"jadyn ferguson","(479) 316-9069","Jadyn.FERGUSON6639@mail2web.com","Stanley Fatmax 8.5 Amp Reciprocating Saw, Fme365k"
"billy james","(671) 341-0232","Billy.JA5913@gmail.com","Mountain Blow Gun 24 Deluxe W/90 Deg Angled Nozzle"
"lexi clay","(562) 277-9189","Le.CLAY3777@mail2web.com","Positec Usa Inc Rk7867 6"" 1/2 Hp Pro Series Bench Grinder"
"ava goodwin","(650) 822-3967","Av.GOODWIN5304@mail2web.com","50 Air Hose Reel"
"marisa burton","(929) 844-0780","Marisa.BUR6452@gmail.com","Worx Semi Automatic Sd Driver, Wx254l"
"elsie head","(913) 929-8138","Elsie.HE3599@yahoo.com","Dremel Sanding/grinding Mini Accessory Kit, 686-02"
"gauge hart","(442) 954-8170","Gaug.HART5492@mail2web.com","Campbell Hausfeld Brad Nailer And Stapler"
"leona lara","(972) 186-6419","Leo.LA1898@yahoo.com","Arrow Fastener Heavy Duty Plier Type Stapler"
"analia butler","(919) 464-6414","Anali.BUTL7223@live.com","Campbell Hausfeld Air Compressor Oil - 16 Ounce"
"leonard webster","(262) 442-7046","Leon.WEBS5619@live.com","California Air Tools 10 Gallon 2.0 Hp Steel Tank Oil-lubricated Air Compressor"
"caroline rodgers","(812) 289-4020","Caroli.RODG6386@yahoo.com","Rikon 1.2 Amp 120 V 16 Scroll Saw"
"hattie melendez","(864) 751-1893","Hatt.MELENDEZ9547@gmail.com","Black And Decker Power Tools Gco.12sfb 12-volt Cordless Drill With Stud Sensor And St"
"carl england","(347) 652-1107","Carl.ENGLAN5904@live.com","Skil 120v 1-3/4 Hp Fixed Base Router, 1817"
"arjun anderson","(770) 521-9629","Arjun.ANDERSO2320@mail2web.com","Skil 120v 1-3/4 Hp Fixed Base Router, 1817"
"corey strong","(831) 434-9207","Corey.STRO2544@gmail.com","Powerbuilt Soldering Gun Kit"
"lindsay gilbert","(661) 766-0918","Lind.GILB7255@gmail.com","Skil Fixed Base Routers - 1 3/4 Hp Fixed Base Router 9 Amp Motor"
"ean conner","(940) 143-5050","E.CONN5933@hushmail.com","Ultra Steel 6v Cordless Drill"
"destinee eaton","(740) 890-5009","Destine.EA4928@gmail.com","Bernzomatic 019335/ns3 Nickel Silver Brazing Rods"
"abraham brock","(432) 775-3938","Abr.BRO5129@mail2web.com","Arrow Pneumatic Pneumasterair 1/2 Filter/regulator With Gauge"
"moshe christian","(254) 395-2408","Mos.CHRIS5255@hushmail.com","Dewalt Power Tools Dck290l2 20 Volt Max Lithium Ion Hammerdrill-impact Driver Co"
"bryce young","(858) 182-1575","Bryc.YO9590@live.com","Dremel Lawn And Garden Rotary Tool Kit, 100-lg"
"ada savage","(559) 919-5413","Ada.SAVAGE2766@gmail.com","Weller Sp40l Lightweight Soldering Iron"
"leilani decker","(612) 184-3605","Lei.DEC8190@hushmail.com","Wen Apex Pro 12v 3/8 Lithium Ion Cordless Drill/driver"
"cole burgess","(614) 697-6519","Co.BURGESS7808@yahoo.com","Irwin 7-piece Drive Set, 1885553"
"joseph terrell","(803) 108-9811","Josep.TER4738@hushmail.com","Rockwell Shopseries 12 Amp 7 1/4"" Circular Saw"
"yareli acosta","(585) 329-3006","Yar.ACO6207@live.com","Edsal Heavy-duty Steel Workbench, Mrwb-6"
"maxton ochoa","(361) 992-5764","Max.OCHO9087@hushmail.com","Home Series 3 Pc Master Kit"
"sadie holmes","(859) 495-4088","Sad.HOLMES2842@hushmail.com","Bostitch Air Chisel Hammer With 3 Chisels, Btmt72394"
"clarissa norman","(209) 332-8569","Clarissa.NORM5344@hushmail.com","Great Neck Saw 17612 Soldering Iron"
"landen olson","(413) 181-8301","Land.OL2900@hushmail.com","Rubbermaid Wall Washer Replacement Pads, White Rcps299"
"armando bond","(973) 522-6372","Arman.BON2610@hushmail.com","Surebonder Upholstery Pneumatic Stapler"
"mustafa english","(301) 140-3676","Must.ENGLI2518@live.com","Masterflow 12v 3-in-1 Turbo-boost Air Compressor / Inflator / Deflator"
"charli battle","(843) 864-1099","Charl.BATTLE8580@mail2web.com","Ultra Steel 3.0 Amp Jig Saw"
"cassius norman","(406) 649-2949","Cassiu.NORMA3873@live.com","Eclipse Pz2x1-15/16 Bit Pozidrive Size 2 1-15/16in Long 1/4in Hex"
"nico miranda","(440) 702-5071","Nic.MIRAN2948@gmail.com","Fry Technologies Cookson Elect Am62964 Lead-free Rosin Core Solder"
"willa workman","(772) 360-7530","Will.WORKM7781@live.com","Stanley Fatmax 3/8"" Corded Drill, Fme105"
"kaleigh francis","(603) 682-1637","Kaleigh.FRAN6911@mail2web.com","Freeman Pf3p6galck Freeman Ultimate Finishing Kit With 6 Gallon Compressor, 3 Nailers, Canvas Carry"
"julian mccarty","(260) 806-6050","Julia.MCCARTY3842@mail2web.com","Alpha Fry Am13460 Rosin Core Solder And Dispenser"
"ashlyn phillips","(260) 787-9917","Ash.PHILLI2459@live.com","Eclipse 902-134 Solder Tip For 900-066n Solder Station"
"tyrese bolton","(414) 343-9259","Tyre.BOLTO5509@gmail.com","Bostitch 1/4 Universal Air Coupler, Btfp72321"
"elsa wolfe","(720) 470-6344","El.WOL9895@gmail.com","Campbell Hausfeld 1 Gallon Air Compressor"
"karly warren","(760) 713-4859","Karl.WAR7244@yahoo.com","Dsr Schumacher Psj-2212 Pro Series 2200 Amp Jump Starter"
"kai randall","(906) 607-1843","Ka.RAND4432@yahoo.com","Dmt 8 Inch Duosharp Plus Benchstone Fine Coarse Wm8fc-wb"
"damarion sharp","(937) 273-8227","Damari.SHARP1181@hushmail.com","Electric Glue Skillet 7"""
