business_id,name,time,ip
1814,"1847 Men's Salon,DIFC","2016-06-25 11:06",127.0.0.1
3727,"Elegance ,Deccan Gymkhana","2016-06-25 11:06",127.0.0.1
1681,"Dreamworks Spa,Dubai Land","2016-06-25 11:06",127.0.0.1
1681,"Dreamworks Spa,Dubai Land","2016-06-25 11:06",127.0.0.1
